Projeto01.utf8.md
…
## The following objects are masked from 'package:base':
## 
##     intersect, setdiff, setequal, union

# Verificar se existem valores ausentes (missing) em cada coluna
# Nenhum valor encontrado
any(is.na(df))

## [1] FALSE

# Analisando dados por agrupamentos
df %>% group_by(ip) %>% tally()

## # A tibble: 34,857 x 2
##       ip     n
##    <int> <int>
##  1     9     1
##  2    10     3
##  3    19     1
##  4    20     4
##  5    25     1
##  6    27     5
##  7    31     1
##  8    33     1
##  9    36     3
## 10    59     3
## #  with 34,847 more rows

df %>% group_by(ip, click_day) %>% tally()

## # A tibble: 55,454 x 3
## # Groups:   ip [34,857]
##       ip click_day     n
##    <int>     <int> <int>
##  1     9         7     1
##  2    10         7     2
##  3    10         8     1
##  4    19         8     1
##  5    20         8     3
##  6    20         9     1
##  7    25         7     1
##  8    27         7     1
##  9    27         8     2
## 10    27         9     2
## #  with 55,444 more rows
…
